%YAML 1.1
%TAG !u! tag:unity3d.com,2011:
--- !u!114 &11400000
MonoBehaviour:
  m_ObjectHideFlags: 0
  m_CorrespondingSourceObject: {fileID: 0}
  m_PrefabInternal: {fileID: 0}
  m_GameObject: {fileID: 0}
  m_Enabled: 1
  m_EditorHideFlags: 0
  m_Script: {fileID: 11500000, guid: 31e1a9ccc8c17d443aa96ae84765fd94, type: 3}
  m_Name: CacaDeSetUp2
  m_EditorClassIdentifier: 
  editorGeneratorLevel: {fileID: 0}
  blockSize: 1
  entities: []
  objects: []
  misc: []
  extraOptions: 0
  player:
    prefab: {fileID: 0}
    pool: []
    color: {r: 0, g: 0, b: 0, a: 0}
    random: 0
    poolCollapse: 0
  horizontal: 0
  straight: {fileID: 0}
  curve: {fileID: 0}
  cross: {fileID: 0}
  begin: {fileID: 0}
  end: {fileID: 0}
  pathColor: {r: 1, g: 0, b: 0, a: 1}
  beginColor: {r: 0, g: 1, b: 0, a: 1}
  endColor: {r: 0, g: 0, b: 1, a: 1}
